{
    "name": "OpenCV LBPH Module[Reinaldo]",
    "services": {
 	"detect": {
	    "name": "detection",
	    "run": "python2",
	    "file": "detect.py",
	    "input": [
		{
		    "key": "input",
		    "val": "$img_file",
		    "type": "file_path",
		    "required": true
		}
	    ],
	    "output": {
		"default": 0,
		"options": ["image", "mat"],
		"method": "file",
		"location": "/tmp/out.png"
	    }	 
	},
	"train": {
	    "name": "Classifier Train",
	    "run": "python",
	    "file": "train.py",
	    "api": {
		"file": "Recognizer.py",
		"class": "BaseRecognizerAPI",
		"method": "train"
	    },
	    "input": [
		{
		    "key": "dataset",
		    "val": "$name",
		    "type": "file_path",
		    "required": true
		},
		{
		    "key": "classifier",
		    "val": "$output",
		    "type": "string",
		    "required": true
		},
		{
		    "key": "label",
		    "val": "$label",
		    "type": "string",
		    "default": "folder",
		    "required": false
		}
	    ],
	    "output": {
		"default": 0,
		"options": ["image", "mat"],
		"method": "file",
		"location": "/tmp/out.pkl"
	    }
	},
	"predict":{
	    "name": "recognize",
	    "run": "python2",
	    "file": "predict.py",
	    "api": {
		"file": "Recognizer.py",
		"class": "BaseRecognizerAPI",
		"method": "predict"
	    },
	    "input": [
		{
		    "key": "input",
		    "val": "$img_file",
		    "type": "file_path",
		    "required": true
		},
		{
		    "key": "classifier",
		    "val": "$classifier",
		    "type": "file_path",
		    "required": true
		}
	    ],
	    "output": {
		"default": 0,
		"options": ["image", "mat"],
		"method": "file",
		"location": "/tmp/out.png"
	    }	 	    
	}
    },

    "frame_processors": [
	{
	    "id": "recognizer",
	    "description": "Implementation of the original OpenCV frame processor",
	    "file": "frame_processor.py",
	    "name": "FrameProcessor",
	    "options": {
		"classifier": {
		    "type": "classifier_path"
		}
	    }
    ]
}
